{
  "page": 2,
  "per_page": 4,
  "total": 10,
  "total_pages": 3,
  "data": [
    {
      "inspection_id": "INS005",
      "property_name": "Coastal Bungalow",
      "address": "202 Coastal Rd, Miami, FL",
      "inspection_type": "Renewal",
      "status": "In Progress",
      "assigned_date": "2025-09-05",
      "due_date": "2025-09-20",
      "priority": "Medium",
      "last_updated": "2025-09-10",
      "sync_status": "Offline",
      "media": [
        {
          "type": "image",
          "url": "https://media.istockphoto.com/id/2177184303/photo/white-man-programmer-or-it-specialist-software-developer.webp?a=1&b=1&s=612x612"
        }
      ]
    },
    {
      "inspection_id": "INS006",
      "property_name": "Desert Oasis",
      "address": "303 Desert Ln, Phoenix, AZ",
      "inspection_type": "Damage Claim",
      "status": "Pending",
      "assigned_date": "2025-08-30",
      "due_date": "2025-09-10",
      "priority": "High",
      "last_updated": "2025-09-05",
      "sync_status": "Offline",
      "media": [
        {
          "type": "image",
          "url": "https://images.unsplash.com/photo-1511376777868-611b54f68947?w=500&auto=format&fit=crop&q=60&ixlib=rb-4.1.0&ixid=M3wxMjA3fDB8MHxzZWFyY2h8MTl8fGRldmVsb3BlcnxlbnwwfHwwfHx8MA%3D%3D"
        }
      ]
    },
    {
      "inspection_id": "INS007",
      "property_name": "City Penthouse",
      "address": "404 City Ave, Los Angeles, CA",
      "inspection_type": "New Policy",
      "status": "Completed",
      "assigned_date": "2025-08-25",
      "due_date": "2025-09-05",
      "priority": "Low",
      "last_updated": "2025-09-01",
      "sync_status": "Synced",
      "media": [
        {
          "type": "image",
          "url": "https://images.unsplash.com/photo-1526925539332-aa3b66e35444?q=80&w=765&auto=format"
        }
      ]
    },
    {
      "inspection_id": "INS008",
      "property_name": "Countryside Manor",
      "address": "505 Country Rd, Nashville, TN",
      "inspection_type": "Renewal",
      "status": "In Progress",
      "assigned_date": "2025-08-20",
      "due_date": "2025-09-10",
      "priority": "Medium",
      "last_updated": "2025-08-25",
      "sync_status": "Offline",
      "media": [
        {
          "type": "image",
          "url": "https://images.unsplash.com/photo-1498050108023-c5249f4df085?w=500&auto=format"
        }
      ]
    }
  ]
}
