{
  "page": 3,
  "per_page": 4,
  "total": 10,
  "total_pages": 3,
  "data": [
    {
      "inspection_id": "INS009",
      "property_name": "Suburban Residence",
      "address": "606 Suburb Ln, Chicago, IL",
      "inspection_type": "Damage Claim",
      "status": "Pending",
      "assigned_date": "2025-08-15",
      "due_date": "2025-08-25",
      "priority": "High",
      "last_updated": "2025-08-20",
      "sync_status": "Offline",
      "media": [
        {
          "type": "image",
          "url": "https://images.unsplash.com/photo-1511376777868-611b54f68947?w=500&auto=format"
        }
      ]
    },
    {
      "inspection_id": "INS010",
      "property_name": "Riverside Cottage",
      "address": "707 River Rd, Portland, OR",
      "inspection_type": "New Policy",
      "status": "Completed",
      "assigned_date": "2025-08-10",
      "due_date": "2025-08-20",
      "priority": "Low",
      "last_updated": "2025-08-15",
      "sync_status": "Synced",
      "media": [
        {
          "type": "image",
          "url": "https://images.unsplash.com/photo-1602992708529-c9fdb12905c9?w=500&auto=format"
        }
      ]
    }
  ]
}
